{
    "development": {
        "username": "root",
        "password": "root",
        "database": "qualib",
        "host": "localhost",
        "port": 8889,
        "dialect": "mysql"
    },
    "azure": {
        "username": "qualibri",
        "password": ".Full2019",
        "database": "qualibri_database",
        "host": "qualibri-server.database.windows.net",
        "port": 1433,
        "dialect": "mssql",
        "driver": "tedious",
        "operatorsAliases": false,
        "dialectOptions": {
            "options": {
                "encrypt": true
            }
        },
        "pool": {
            "max": 5,
            "min": 0,
            "idle": 10000
        }
    },
    "test": {
        "username": "root",
        "password": ".Full2019",
        "database": "database_test",
        "host": "127.0.0.1",
        "dialect": "mysql",
        "operatorsAliases": false
    },
    "production": {
        "username": "root",
        "password": ".Full2019",
        "database": "database_production",
        "host": "127.0.0.1",
        "dialect": "mysql",
        "operatorsAliases": false
    }
}
